{
  "annotations": {
    "list": [
      {
        "builtIn": 1,
        "datasource": "-- Grafana --",
        "enable": true,
        "hide": true,
        "iconColor": "rgba(0, 211, 255, 1)",
        "name": "Annotations & Alerts",
        "type": "dashboard"
      }
    ]
  },
  "editable": false,
  "gnetId": null,
  "graphTooltip": 0,
  "id": 72,
  "iteration": 1578968328840,
  "links": [],
  "panels": [
    {
      "collapsed": false,
      "gridPos": {
        "h": 1,
        "w": 24,
        "x": 0,
        "y": 0
      },
      "id": 17,
      "panels": [],
      "repeat": null,
      "title": "Overview",
      "type": "row"
    },
    {
      "cacheTimeout": null,
      "colorBackground": false,
      "colorValue": true,
      "colors": [
        "#d44a3a",
        "rgba(237, 129, 40, 0.89)",
        "#299c46"
      ],
      "format": "none",
      "gauge": {
        "maxValue": 100,
        "minValue": 0,
        "show": false,
        "thresholdLabels": false,
        "thresholdMarkers": true
      },
      "gridPos": {
        "h": 7,
        "w": 6,
        "x": 0,
        "y": 1
      },
      "id": 2,
      "interval": null,
      "links": [],
      "mappingType": 1,
      "mappingTypes": [
        {
          "name": "value to text",
          "value": 1
        },
        {
          "name": "range to text",
          "value": 2
        }
      ],
      "maxDataPoints": 100,
      "nullPointMode": "connected",
      "nullText": null,
      "postfix": "",
      "postfixFontSize": "50%",
      "prefix": "",
      "prefixFontSize": "50%",
      "rangeMaps": [
        {
          "from": "null",
          "text": "N/A",
          "to": "null"
        }
      ],
      "sparkline": {
        "fillColor": "rgba(31, 118, 189, 0.18)",
        "full": false,
        "lineColor": "rgb(31, 120, 193)",
        "show": false
      },
      "tableColumn": "",
      "targets": [
        {
          "expr": "sum(up{job=\"apiserver\"})",
          "format": "time_series",
          "intervalFactor": 2,
          "legendFormat": "",
          "refId": "A"
        }
      ],
      "thresholds": "1,2",
      "title": "UP",
      "tooltip": {
        "shared": false
      },
      "type": "singlestat",
      "valueFontSize": "200%",
      "valueMaps": [
        {
          "op": "=",
          "text": "N/A",
          "value": "null"
        }
      ],
      "valueName": "current"
    },
    {
      "cacheTimeout": null,
      "colorBackground": false,
      "colorValue": true,
      "colors": [
        "#299c46",
        "rgba(237, 129, 40, 0.89)",
        "#d44a3a"
      ],
      "description": "过去5分钟Scheduler实例重启的次数",
      "format": "none",
      "gauge": {
        "maxValue": 100,
        "minValue": 0,
        "show": false,
        "thresholdLabels": false,
        "thresholdMarkers": true
      },
      "gridPos": {
        "h": 7,
        "w": 6,
        "x": 6,
        "y": 1
      },
      "id": 33,
      "interval": null,
      "links": [],
      "mappingType": 1,
      "mappingTypes": [
        {
          "name": "value to text",
          "value": 1
        },
        {
          "name": "range to text",
          "value": 2
        }
      ],
      "maxDataPoints": 100,
      "nullPointMode": "connected",
      "nullText": null,
      "postfix": "",
      "postfixFontSize": "50%",
      "prefix": "",
      "prefixFontSize": "50%",
      "rangeMaps": [
        {
          "from": "null",
          "text": "N/A",
          "to": "null"
        }
      ],
      "sparkline": {
        "fillColor": "rgba(31, 118, 189, 0.18)",
        "full": false,
        "lineColor": "rgb(31, 120, 193)",
        "show": false
      },
      "tableColumn": "",
      "targets": [
        {
          "expr": "sum (delta(kube_pod_container_status_restarts_total{namespace=\"$namespace\",pod=~\"$pod\"}[5m]))",
          "format": "time_series",
          "intervalFactor": 2,
          "legendFormat": "",
          "refId": "A"
        }
      ],
      "thresholds": "1,2",
      "title": "Restarted",
      "tooltip": {
        "shared": false
      },
      "type": "singlestat",
      "valueFontSize": "200%",
      "valueMaps": [
        {
          "op": "=",
          "text": "N/A",
          "value": "null"
        }
      ],
      "valueName": "current"
    },
    {
      "columns": [],
      "datasource": "prometheus",
      "description": "组件中所有Pod的详细信息及状态",
      "fontSize": "100%",
      "gridPos": {
        "h": 7,
        "w": 12,
        "x": 12,
        "y": 1
      },
      "id": 37,
      "links": [],
      "pageSize": null,
      "scroll": true,
      "showHeader": true,
      "sort": {
        "col": 0,
        "desc": true
      },
      "styles": [
        {
          "alias": "Time",
          "dateFormat": "YYYY-MM-DD HH:mm:ss",
          "pattern": "Time",
          "type": "hidden"
        },
        {
          "alias": " Namespace",
          "colorMode": null,
          "colors": [
            "rgba(245, 54, 54, 0.9)",
            "rgba(237, 129, 40, 0.89)",
            "rgba(50, 172, 45, 0.97)"
          ],
          "dateFormat": "YYYY-MM-DD HH:mm:ss",
          "decimals": 2,
          "pattern": "namespace",
          "thresholds": [],
          "type": "number",
          "unit": "short"
        },
        {
          "alias": "Pod Name",
          "colorMode": null,
          "colors": [
            "rgba(245, 54, 54, 0.9)",
            "rgba(237, 129, 40, 0.89)",
            "rgba(50, 172, 45, 0.97)"
          ],
          "dateFormat": "YYYY-MM-DD HH:mm:ss",
          "decimals": 2,
          "pattern": "pod",
          "thresholds": [],
          "type": "number",
          "unit": "short"
        },
        {
          "alias": "Pod Status",
          "colorMode": null,
          "colors": [
            "rgba(245, 54, 54, 0.9)",
            "rgba(237, 129, 40, 0.89)",
            "rgba(50, 172, 45, 0.97)"
          ],
          "dateFormat": "YYYY-MM-DD HH:mm:ss",
          "decimals": 2,
          "pattern": "phase",
          "thresholds": [],
          "type": "number",
          "unit": "short"
        },
        {
          "alias": "Node",
          "colorMode": null,
          "colors": [
            "rgba(245, 54, 54, 0.9)",
            "rgba(237, 129, 40, 0.89)",
            "rgba(50, 172, 45, 0.97)"
          ],
          "dateFormat": "YYYY-MM-DD HH:mm:ss",
          "decimals": 2,
          "pattern": "node",
          "thresholds": [],
          "type": "number",
          "unit": "short"
        },
        {
          "alias": "Node IP",
          "colorMode": null,
          "colors": [
            "rgba(245, 54, 54, 0.9)",
            "rgba(237, 129, 40, 0.89)",
            "rgba(50, 172, 45, 0.97)"
          ],
          "dateFormat": "YYYY-MM-DD HH:mm:ss",
          "decimals": 2,
          "pattern": "host_ip",
          "thresholds": [],
          "type": "number",
          "unit": "short"
        },
        {
          "alias": "Pod IP",
          "colorMode": null,
          "colors": [
            "rgba(245, 54, 54, 0.9)",
            "rgba(237, 129, 40, 0.89)",
            "rgba(50, 172, 45, 0.97)"
          ],
          "dateFormat": "YYYY-MM-DD HH:mm:ss",
          "decimals": 2,
          "pattern": "pod_ip",
          "thresholds": [],
          "type": "number",
          "unit": "short"
        },
        {
          "alias": "",
          "colorMode": null,
          "colors": [
            "rgba(245, 54, 54, 0.9)",
            "rgba(237, 129, 40, 0.89)",
            "rgba(50, 172, 45, 0.97)"
          ],
          "dateFormat": "YYYY-MM-DD HH:mm:ss",
          "decimals": 2,
          "pattern": ".*",
          "thresholds": [],
          "type": "hidden",
          "unit": "short"
        }
      ],
      "targets": [
        {
          "expr": "kube_pod_info{namespace=\"$namespace\",pod=~\"$pod\"}",
          "format": "table",
          "instant": true,
          "intervalFactor": 1,
          "refId": "A"
        }
      ],
      "title": "Pod Info",
      "transform": "table",
      "type": "table"
    },
    {
      "aliasColors": {},
      "bars": false,
      "dashLength": 10,
      "dashes": false,
      "description": "Scheduler实例的CPU使用情况，每一个点都是以过去5分钟为时间片来统计的，单位是Core",
      "fill": 1,
      "gridPos": {
        "h": 8,
        "w": 12,
        "x": 0,
        "y": 8
      },
      "id": 18,
      "legend": {
        "alignAsTable": "true",
        "avg": false,
        "current": true,
        "max": false,
        "min": false,
        "rightSide": true,
        "show": false,
        "total": false,
        "values": true
      },
      "lines": true,
      "linewidth": 1,
      "links": [],
      "nullPointMode": "null",
      "percentage": false,
      "pointradius": 5,
      "points": false,
      "renderer": "flot",
      "seriesOverrides": [],
      "spaceLength": 10,
      "stack": false,
      "steppedLine": false,
      "targets": [
        {
          "expr": "avg by (pod_name) (container_cpu_usage_seconds_total_irate5m_with_label{namespace=\"$namespace\",pod_name=~\"$pod\"})",
          "format": "time_series",
          "intervalFactor": 2,
          "legendFormat": "{{pod_name}}",
          "refId": "A"
        },
        {
          "expr": "avg by (pod_name) (kube_pod_container_resource_requests_cpu_cores{namespace=\"$namespace\",pod=~\"$pod\"})",
          "format": "time_series",
          "intervalFactor": 1,
          "legendFormat": "request",
          "refId": "B"
        },
        {
          "expr": "avg by (pod_name) (kube_pod_container_resource_limits_cpu_cores{namespace=\"$namespace\",pod=~\"$pod\"})",
          "format": "time_series",
          "intervalFactor": 1,
          "legendFormat": "limit",
          "refId": "C"
        }
      ],
      "thresholds": [],
      "timeFrom": null,
      "timeRegions": [],
      "timeShift": null,
      "title": "Pod CPU Usage",
      "tooltip": {
        "shared": true,
        "sort": 2,
        "value_type": "individual"
      },
      "type": "graph",
      "xaxis": {
        "buckets": null,
        "mode": "time",
        "name": null,
        "show": true,
        "values": []
      },
      "yaxes": [
        {
          "decimals": null,
          "format": "short",
          "label": "",
          "logBase": 1,
          "max": null,
          "min": null,
          "show": true
        },
        {
          "format": "s",
          "label": null,
          "logBase": 1,
          "max": null,
          "min": null,
          "show": true
        }
      ],
      "yaxis": {
        "align": false,
        "alignLevel": null
      }
    },
    {
      "aliasColors": {},
      "bars": false,
      "dashLength": 10,
      "dashes": false,
      "description": "Scheduler实例的内存使用情况",
      "fill": 1,
      "gridPos": {
        "h": 8,
        "w": 12,
        "x": 12,
        "y": 8
      },
      "id": 20,
      "legend": {
        "alignAsTable": "true",
        "avg": false,
        "current": true,
        "max": false,
        "min": false,
        "rightSide": true,
        "show": false,
        "total": false,
        "values": true
      },
      "lines": true,
      "linewidth": 1,
      "links": [],
      "nullPointMode": "null",
      "percentage": false,
      "pointradius": 5,
      "points": false,
      "renderer": "flot",
      "seriesOverrides": [],
      "spaceLength": 10,
      "stack": false,
      "steppedLine": false,
      "targets": [
        {
          "expr": "avg by (pod_name) (container_memory_usage_bytes_without_cache_with_label{namespace=\"$namespace\",pod_name=~\"$pod\"})",
          "format": "time_series",
          "intervalFactor": 2,
          "legendFormat": "{{pod_name}}",
          "refId": "A"
        },
        {
          "expr": "avg by (pod_name) (kube_pod_container_resource_requests_memory_bytes{namespace=\"$namespace\",pod=~\"$pod\"})",
          "format": "time_series",
          "intervalFactor": 1,
          "legendFormat": "request",
          "refId": "B"
        },
        {
          "expr": "avg by (pod_name) (kube_pod_container_resource_limits_memory_bytes{namespace=\"$namespace\",pod=~\"$pod\"})",
          "format": "time_series",
          "intervalFactor": 1,
          "legendFormat": "limit",
          "refId": "C"
        }
      ],
      "thresholds": [],
      "timeFrom": null,
      "timeRegions": [],
      "timeShift": null,
      "title": "Pod Memory Usage",
      "tooltip": {
        "shared": true,
        "sort": 2,
        "value_type": "individual"
      },
      "type": "graph",
      "xaxis": {
        "buckets": null,
        "mode": "time",
        "name": null,
        "show": true,
        "values": []
      },
      "yaxes": [
        {
          "format": "bytes",
          "label": null,
          "logBase": 1,
          "max": null,
          "min": null,
          "show": true
        },
        {
          "format": "s",
          "label": null,
          "logBase": 1,
          "max": null,
          "min": null,
          "show": true
        }
      ],
      "yaxis": {
        "align": false,
        "alignLevel": null
      }
    },
    {
      "aliasColors": {},
      "bars": false,
      "dashLength": 10,
      "dashes": false,
      "description": "过去5分钟内Scheduler处理请求的平均延迟，按照请求延时的分布进行分组",
      "fill": 1,
      "gridPos": {
        "h": 8,
        "w": 12,
        "x": 0,
        "y": 16
      },
      "id": 21,
      "legend": {
        "alignAsTable": "true",
        "avg": false,
        "current": true,
        "max": false,
        "min": false,
        "rightSide": true,
        "show": false,
        "total": false,
        "values": true
      },
      "lines": true,
      "linewidth": 1,
      "links": [],
      "nullPointMode": "null",
      "percentage": false,
      "pointradius": 5,
      "points": false,
      "renderer": "flot",
      "seriesOverrides": [],
      "spaceLength": 10,
      "stack": false,
      "steppedLine": false,
      "targets": [
        {
          "expr": "avg(http_request_duration_microseconds{job=\"kube-scheduler\", quantile=\"0.99\"})",
          "format": "time_series",
          "intervalFactor": 2,
          "legendFormat": "99th latency",
          "refId": "A"
        },
        {
          "expr": "avg(http_request_duration_microseconds{job=\"kube-scheduler\", quantile=\"0.9\"})",
          "format": "time_series",
          "intervalFactor": 1,
          "legendFormat": "90th latency",
          "refId": "B"
        },
        {
          "expr": "avg(http_request_duration_microseconds{job=\"kube-scheduler\", quantile=\"0.5\"})",
          "format": "time_series",
          "intervalFactor": 1,
          "legendFormat": "50th latency",
          "refId": "C"
        }
      ],
      "thresholds": [],
      "timeFrom": null,
      "timeRegions": [],
      "timeShift": null,
      "title": "Scheduler Request Latency Group by Quantile",
      "tooltip": {
        "shared": true,
        "sort": 2,
        "value_type": "individual"
      },
      "type": "graph",
      "xaxis": {
        "buckets": null,
        "mode": "time",
        "name": null,
        "show": true,
        "values": []
      },
      "yaxes": [
        {
          "format": "µs",
          "label": null,
          "logBase": 1,
          "max": null,
          "min": null,
          "show": true
        },
        {
          "format": "s",
          "label": null,
          "logBase": 1,
          "max": null,
          "min": null,
          "show": true
        }
      ],
      "yaxis": {
        "align": false,
        "alignLevel": null
      }
    },
    {
      "aliasColors": {},
      "bars": false,
      "dashLength": 10,
      "dashes": false,
      "description": "过去5分钟内Scheduler发出的请求的平均延迟，按照请求的URL进行分组",
      "fill": 1,
      "gridPos": {
        "h": 8,
        "w": 12,
        "x": 12,
        "y": 16
      },
      "id": 32,
      "legend": {
        "alignAsTable": "true",
        "avg": false,
        "current": true,
        "max": false,
        "min": false,
        "rightSide": true,
        "show": false,
        "sideWidth": null,
        "total": false,
        "values": true
      },
      "lines": true,
      "linewidth": 1,
      "links": [],
      "nullPointMode": "null",
      "percentage": false,
      "pointradius": 5,
      "points": false,
      "renderer": "flot",
      "seriesOverrides": [],
      "spaceLength": 10,
      "stack": false,
      "steppedLine": false,
      "targets": [
        {
          "expr": "histogram_quantile(0.99, avg(rate(rest_client_request_latency_seconds_bucket{job=\"kube-scheduler\", instance=~\"$Instance.*\"}[5m])) by (url, le)) ",
          "format": "time_series",
          "intervalFactor": 2,
          "legendFormat": " {{url}}",
          "refId": "A"
        }
      ],
      "thresholds": [],
      "timeFrom": null,
      "timeRegions": [],
      "timeShift": null,
      "title": "Rest Client Request Latency Group by URL",
      "tooltip": {
        "shared": true,
        "sort": 2,
        "value_type": "individual"
      },
      "type": "graph",
      "xaxis": {
        "buckets": null,
        "mode": "time",
        "name": null,
        "show": true,
        "values": []
      },
      "yaxes": [
        {
          "format": "s",
          "label": null,
          "logBase": 1,
          "max": null,
          "min": null,
          "show": true
        },
        {
          "format": "s",
          "label": null,
          "logBase": 1,
          "max": null,
          "min": null,
          "show": true
        }
      ],
      "yaxis": {
        "align": false,
        "alignLevel": null
      }
    },
    {
      "aliasColors": {},
      "bars": false,
      "dashLength": 10,
      "dashes": false,
      "description": "过去5分钟内Scheduler调度的平均延时，包括调度算法和绑定时间，按照延时分布分组",
      "fill": 1,
      "gridPos": {
        "h": 8,
        "w": 12,
        "x": 0,
        "y": 24
      },
      "id": 15,
      "legend": {
        "alignAsTable": "true",
        "avg": false,
        "current": true,
        "max": false,
        "min": false,
        "rightSide": false,
        "show": false,
        "total": false,
        "values": true
      },
      "lines": true,
      "linewidth": 1,
      "links": [],
      "nullPointMode": "null as zero",
      "percentage": false,
      "pointradius": 5,
      "points": false,
      "renderer": "flot",
      "seriesOverrides": [],
      "spaceLength": 10,
      "stack": false,
      "steppedLine": false,
      "targets": [
        {
          "expr": "histogram_quantile(0.99, avg(rate(scheduler_e2e_scheduling_latency_microseconds_bucket{job=\"kube-scheduler\", instance=~\"$Instance.*\"}[5m])) by (le))",
          "format": "time_series",
          "intervalFactor": 2,
          "legendFormat": "99th latency",
          "refId": "A"
        },
        {
          "expr": "histogram_quantile(0.9, avg(rate(scheduler_e2e_scheduling_latency_microseconds_bucket{job=\"kube-scheduler\", instance=~\"$Instance.*\"}[5m])) by (le))",
          "format": "time_series",
          "intervalFactor": 2,
          "legendFormat": "90th latency",
          "refId": "B"
        },
        {
          "expr": "histogram_quantile(0.5, avg(rate(scheduler_e2e_scheduling_latency_microseconds_bucket{job=\"kube-scheduler\", instance=~\"$Instance.*\"}[5m])) by (le))",
          "format": "time_series",
          "intervalFactor": 2,
          "legendFormat": " 50th latency",
          "refId": "C"
        }
      ],
      "thresholds": [],
      "timeFrom": null,
      "timeRegions": [],
      "timeShift": null,
      "title": "Scheduler E2E Scheduling Latency Group by Quantile",
      "tooltip": {
        "shared": true,
        "sort": 2,
        "value_type": "individual"
      },
      "type": "graph",
      "xaxis": {
        "buckets": null,
        "mode": "time",
        "name": null,
        "show": true,
        "values": []
      },
      "yaxes": [
        {
          "format": "µs",
          "label": null,
          "logBase": 1,
          "max": null,
          "min": null,
          "show": true
        },
        {
          "format": "s",
          "label": null,
          "logBase": 1,
          "max": null,
          "min": null,
          "show": false
        }
      ],
      "yaxis": {
        "align": false,
        "alignLevel": null
      }
    },
    {
      "aliasColors": {},
      "bars": false,
      "dashLength": 10,
      "dashes": false,
      "description": "过去5分钟内Scheduler调度的绑定主机的平均延时，按照延时分布分组",
      "fill": 1,
      "gridPos": {
        "h": 8,
        "w": 12,
        "x": 12,
        "y": 24
      },
      "id": 39,
      "legend": {
        "alignAsTable": "true",
        "avg": false,
        "current": true,
        "max": false,
        "min": false,
        "rightSide": false,
        "show": false,
        "total": false,
        "values": true
      },
      "lines": true,
      "linewidth": 1,
      "links": [],
      "nullPointMode": "null as zero",
      "percentage": false,
      "pointradius": 5,
      "points": false,
      "renderer": "flot",
      "seriesOverrides": [],
      "spaceLength": 10,
      "stack": false,
      "steppedLine": false,
      "targets": [
        {
          "expr": "histogram_quantile(0.99, avg(rate(scheduler_binding_latency_microseconds_bucket{job=\"kube-scheduler\", instance=~\"$Instance.*\"}[5m])) by (le)) > 0",
          "format": "time_series",
          "intervalFactor": 2,
          "legendFormat": "99th latency",
          "refId": "A"
        },
        {
          "expr": "histogram_quantile(0.9, avg(rate(scheduler_binding_latency_microseconds_bucket{job=\"kube-scheduler\", instance=~\"$Instance.*\"}[5m])) by (le)) > 0",
          "format": "time_series",
          "intervalFactor": 2,
          "legendFormat": "90th latency",
          "refId": "B"
        },
        {
          "expr": "histogram_quantile(0.5, avg(rate(scheduler_binding_latency_microseconds_bucket{job=\"kube-scheduler\", instance=~\"$Instance.*\"}[5m])) by (le)) > 0",
          "format": "time_series",
          "intervalFactor": 2,
          "legendFormat": " 50th latency",
          "refId": "C"
        }
      ],
      "thresholds": [],
      "timeFrom": null,
      "timeRegions": [],
      "timeShift": null,
      "title": "Scheduler E2E Binding Latency Group by Quantile",
      "tooltip": {
        "shared": true,
        "sort": 2,
        "value_type": "individual"
      },
      "type": "graph",
      "xaxis": {
        "buckets": null,
        "mode": "time",
        "name": null,
        "show": true,
        "values": []
      },
      "yaxes": [
        {
          "format": "µs",
          "label": null,
          "logBase": 1,
          "max": null,
          "min": null,
          "show": true
        },
        {
          "format": "s",
          "label": null,
          "logBase": 1,
          "max": null,
          "min": null,
          "show": false
        }
      ],
      "yaxis": {
        "align": false,
        "alignLevel": null
      }
    },
    {
      "aliasColors": {},
      "bars": false,
      "dashLength": 10,
      "dashes": false,
      "description": "过去5分钟内Scheduler调度算法的平均延时，按照延时分布分组",
      "fill": 1,
      "gridPos": {
        "h": 8,
        "w": 12,
        "x": 0,
        "y": 32
      },
      "id": 38,
      "legend": {
        "alignAsTable": "true",
        "avg": false,
        "current": true,
        "max": false,
        "min": false,
        "rightSide": false,
        "show": false,
        "total": false,
        "values": true
      },
      "lines": true,
      "linewidth": 1,
      "links": [],
      "nullPointMode": "null as zero",
      "percentage": false,
      "pointradius": 5,
      "points": false,
      "renderer": "flot",
      "seriesOverrides": [],
      "spaceLength": 10,
      "stack": false,
      "steppedLine": false,
      "targets": [
        {
          "expr": "histogram_quantile(0.99, avg(rate(scheduler_scheduling_algorithm_latency_microseconds_bucket{job=\"kube-scheduler\", instance=~\"$Instance.*\"}[5m])) by (le)) > 0",
          "format": "time_series",
          "intervalFactor": 2,
          "legendFormat": "99th latency",
          "refId": "A"
        },
        {
          "expr": "histogram_quantile(0.9, avg(rate(scheduler_scheduling_algorithm_latency_microseconds_bucket{job=\"kube-scheduler\", instance=~\"$Instance.*\"}[5m])) by (le)) > 0",
          "format": "time_series",
          "intervalFactor": 2,
          "legendFormat": "90th latency",
          "refId": "B"
        },
        {
          "expr": "histogram_quantile(0.5, avg(rate(scheduler_scheduling_algorithm_latency_microseconds_bucket{job=\"kube-scheduler\", instance=~\"$Instance.*\"}[5m])) by (le)) > 0",
          "format": "time_series",
          "intervalFactor": 2,
          "legendFormat": " 50th latency",
          "refId": "C"
        }
      ],
      "thresholds": [],
      "timeFrom": null,
      "timeRegions": [],
      "timeShift": null,
      "title": "Scheduler Scheduling Algorithm Latency Group by Quantile",
      "tooltip": {
        "shared": true,
        "sort": 2,
        "value_type": "individual"
      },
      "type": "graph",
      "xaxis": {
        "buckets": null,
        "mode": "time",
        "name": null,
        "show": true,
        "values": []
      },
      "yaxes": [
        {
          "format": "µs",
          "label": null,
          "logBase": 1,
          "max": null,
          "min": null,
          "show": true
        },
        {
          "format": "s",
          "label": null,
          "logBase": 1,
          "max": null,
          "min": null,
          "show": false
        }
      ],
      "yaxis": {
        "align": false,
        "alignLevel": null
      }
    },
    {
      "aliasColors": {},
      "bars": false,
      "dashLength": 10,
      "dashes": false,
      "datasource": "prometheus",
      "description": "Scheduler实例的goroutines数量",
      "fill": 1,
      "gridPos": {
        "h": 8,
        "w": 12,
        "x": 12,
        "y": 32
      },
      "id": 41,
      "legend": {
        "avg": false,
        "current": false,
        "max": false,
        "min": false,
        "show": false,
        "total": false,
        "values": false
      },
      "lines": true,
      "linewidth": 1,
      "links": [],
      "nullPointMode": "null",
      "percentage": false,
      "pointradius": 5,
      "points": false,
      "renderer": "flot",
      "seriesOverrides": [
        {
          "alias": "allocated",
          "stack": false
        }
      ],
      "spaceLength": 10,
      "stack": true,
      "steppedLine": false,
      "targets": [
        {
          "expr": "avg by (pod) (go_goroutines{namespace=~\"$namespace\",pod=~\"$pod\",instance=~\"$Instance.*\"})",
          "format": "time_series",
          "intervalFactor": 1,
          "legendFormat": "{{pod}}/goroutines",
          "refId": "S"
        }
      ],
      "thresholds": [],
      "timeFrom": null,
      "timeRegions": [],
      "timeShift": null,
      "title": "Goroutines Group by Instance",
      "tooltip": {
        "shared": true,
        "sort": 0,
        "value_type": "individual"
      },
      "type": "graph",
      "xaxis": {
        "buckets": null,
        "mode": "time",
        "name": null,
        "show": true,
        "values": []
      },
      "yaxes": [
        {
          "format": "short",
          "label": null,
          "logBase": 1,
          "max": null,
          "min": "0",
          "show": true
        },
        {
          "format": "short",
          "label": null,
          "logBase": 1,
          "max": null,
          "min": null,
          "show": true
        }
      ],
      "yaxis": {
        "align": false,
        "alignLevel": null
      }
    }
  ],
  "refresh": "1m",
  "schemaVersion": 16,
  "style": "dark",
  "tags": [
    "scheduler"
  ],
  "templating": {
    "list": [
      {
        "allValue": ".*",
        "current": {
          "tags": [],
          "text": "All",
          "value": "$__all"
        },
        "datasource": "prometheus",
        "definition": "query_result(process_cpu_seconds_total{job=\"kube-scheduler\"})",
        "hide": 0,
        "includeAll": true,
        "label": null,
        "multi": false,
        "name": "Instance",
        "options": [
          {
            "selected": true,
            "text": "All",
            "value": "$__all"
          },
          {
            "selected": false,
            "text": "192.168.16.55",
            "value": "192.168.16.55"
          },
          {
            "selected": false,
            "text": "192.168.16.54",
            "value": "192.168.16.54"
          },
          {
            "selected": false,
            "text": "192.168.16.53",
            "value": "192.168.16.53"
          }
        ],
        "query": "query_result(process_cpu_seconds_total{job=\"kube-scheduler\"})",
        "refresh": 0,
        "regex": "/.*instance=\"([^\"]*):.*/",
        "skipUrlSync": false,
        "sort": 2,
        "tagValuesQuery": "",
        "tags": [],
        "tagsQuery": "",
        "type": "query",
        "useTags": false
      },
      {
        "current": {
          "text": "kube-system",
          "value": "kube-system"
        },
        "hide": 2,
        "label": null,
        "name": "namespace",
        "options": [
          {
            "selected": true,
            "text": "kube-system",
            "value": "kube-system"
          }
        ],
        "query": "kube-system",
        "skipUrlSync": false,
        "type": "constant"
      },
      {
        "current": {
          "text": "kube-scheduler.*",
          "value": "kube-scheduler.*"
        },
        "hide": 2,
        "label": null,
        "name": "pod",
        "options": [
          {
            "selected": true,
            "text": "kube-scheduler.*",
            "value": "kube-scheduler.*"
          }
        ],
        "query": "kube-scheduler.*",
        "skipUrlSync": false,
        "type": "constant"
      }
    ]
  },
  "time": {
    "from": "now-24h",
    "to": "now"
  },
  "timepicker": {
    "refresh_intervals": [
      "5s",
      "10s",
      "30s",
      "1m",
      "5m",
      "15m",
      "30m",
      "1h",
      "2h",
      "1d"
    ],
    "time_options": [
      "5m",
      "15m",
      "1h",
      "6h",
      "12h",
      "24h",
      "2d",
      "7d",
      "30d"
    ]
  },
  "timezone": "",
  "title": "Kube-Scheduler",
  "uid": "GymlXvEZz",
  "version": 28
}
