{
  "annotations": {
    "list": [
      {
        "builtIn": 1,
        "datasource": "-- Grafana --",
        "enable": true,
        "hide": true,
        "iconColor": "rgba(0, 211, 255, 1)",
        "name": "Annotations & Alerts",
        "type": "dashboard"
      }
    ]
  },
  "editable": false,
  "gnetId": null,
  "graphTooltip": 0,
  "id": 45,
  "iteration": 1575292469530,
  "links": [],
  "panels": [
    {
      "content": "<center><h2>Component $component</h2></center>",
      "gridPos": {
        "h": 3,
        "w": 24,
        "x": 0,
        "y": 0
      },
      "id": 34,
      "links": [],
      "mode": "html",
      "title": "",
      "transparent": true,
      "type": "text"
    },
    {
      "gridPos": {
        "h": 1,
        "w": 24,
        "x": 0,
        "y": 3
      },
      "id": 43,
      "title": "Health of $component",
      "type": "row"
    },
    {
      "cacheTimeout": null,
      "colorBackground": false,
      "colorValue": true,
      "colors": [
        "rgba(245, 54, 54, 0.9)",
        "rgba(248, 112, 0, 0.89)",
        "rgba(50, 172, 45, 0.97)"
      ],
      "datasource": "prometheus",
      "description": "组件的健康状态(Pod Running/Pod 副本数)",
      "format": "percentunit",
      "gauge": {
        "maxValue": 1,
        "minValue": 0,
        "show": true,
        "thresholdLabels": false,
        "thresholdMarkers": true
      },
      "gridPos": {
        "h": 5,
        "w": 4,
        "x": 0,
        "y": 4
      },
      "hideTimeOverride": true,
      "id": 17,
      "interval": null,
      "links": [],
      "mappingType": 1,
      "mappingTypes": [
        {
          "name": "value to text",
          "value": 1
        },
        {
          "name": "range to text",
          "value": 2
        }
      ],
      "maxDataPoints": 100,
      "nullPointMode": "connected",
      "nullText": null,
      "postfix": "",
      "postfixFontSize": "50%",
      "prefix": "",
      "prefixFontSize": "50%",
      "rangeMaps": [
        {
          "from": "null",
          "text": "N/A",
          "to": "null"
        }
      ],
      "sparkline": {
        "fillColor": "rgba(31, 118, 189, 0.18)",
        "full": false,
        "lineColor": "rgb(0, 192, 255)",
        "show": true
      },
      "tableColumn": "",
      "targets": [
        {
          "expr": "(sum (kube_pod_status_phase{namespace=~\"$namespace\",pod=~\"$pod-[a-z0-9]{7,10}-[a-z0-9]{5}\", phase=\"Running\"}==1))/(sum (kube_pod_status_phase{namespace=~\"$namespace\",pod=~\"$pod-[a-z0-9]{7,10}-[a-z0-9]{5}\"}==1))",
          "format": "time_series",
          "hide": false,
          "intervalFactor": 2,
          "legendFormat": "",
          "metric": "node_memory_MemTotal_bytes",
          "refId": "A",
          "step": 40
        }
      ],
      "thresholds": "0.5,0.8",
      "timeFrom": "1s",
      "title": "Component Status",
      "transparent": false,
      "type": "singlestat",
      "valueFontSize": "80%",
      "valueMaps": [
        {
          "op": "=",
          "text": "0",
          "value": "null"
        }
      ],
      "valueName": "current"
    },
    {
      "cacheTimeout": null,
      "colorBackground": false,
      "colorValue": true,
      "colors": [
        "rgba(245, 54, 54, 0.9)",
        "rgba(237, 129, 40, 0.89)",
        "rgba(50, 172, 45, 0.97)"
      ],
      "datasource": "prometheus",
      "decimals": 0,
      "description": "组件中所有Pod的总数",
      "format": "short",
      "gauge": {
        "maxValue": 1,
        "minValue": 0,
        "show": false,
        "thresholdLabels": false,
        "thresholdMarkers": true
      },
      "gridPos": {
        "h": 5,
        "w": 4,
        "x": 4,
        "y": 4
      },
      "id": 55,
      "interval": null,
      "links": [],
      "mappingType": 1,
      "mappingTypes": [
        {
          "name": "value to text",
          "value": 1
        },
        {
          "name": "range to text",
          "value": 2
        }
      ],
      "maxDataPoints": 100,
      "nullPointMode": "connected",
      "nullText": null,
      "postfix": "",
      "postfixFontSize": "50%",
      "prefix": "",
      "prefixFontSize": "50%",
      "rangeMaps": [
        {
          "from": "null",
          "text": "N/A",
          "to": "null"
        }
      ],
      "sparkline": {
        "fillColor": "rgba(31, 118, 189, 0.18)",
        "full": false,
        "lineColor": "rgb(31, 120, 193)",
        "show": true
      },
      "tableColumn": "",
      "targets": [
        {
          "expr": "count (kube_pod_info_with_label{namespace=\"$namespace\",label_service_name=\"$component\"})",
          "format": "time_series",
          "intervalFactor": 2,
          "legendFormat": "",
          "refId": "A",
          "step": 40
        }
      ],
      "thresholds": "0.3,0.5",
      "title": "Pod Total",
      "type": "singlestat",
      "valueFontSize": "80%",
      "valueMaps": [
        {
          "op": "=",
          "text": "N/A",
          "value": "null"
        }
      ],
      "valueName": "current"
    },
    {
      "cacheTimeout": null,
      "colorBackground": false,
      "colorValue": true,
      "colors": [
        "rgba(50, 172, 45, 0.97)",
        "rgba(237, 129, 40, 0.89)",
        "rgba(245, 54, 54, 0.9)"
      ],
      "datasource": "prometheus",
      "decimals": 0,
      "description": "异常Pod的数量",
      "format": "short",
      "gauge": {
        "maxValue": 1,
        "minValue": 0,
        "show": false,
        "thresholdLabels": false,
        "thresholdMarkers": true
      },
      "gridPos": {
        "h": 5,
        "w": 4,
        "x": 8,
        "y": 4
      },
      "id": 60,
      "interval": null,
      "links": [],
      "mappingType": 1,
      "mappingTypes": [
        {
          "name": "value to text",
          "value": 1
        },
        {
          "name": "range to text",
          "value": 2
        }
      ],
      "maxDataPoints": 100,
      "nullPointMode": "connected",
      "nullText": null,
      "postfix": "",
      "postfixFontSize": "50%",
      "prefix": "",
      "prefixFontSize": "50%",
      "rangeMaps": [
        {
          "from": "null",
          "text": "N/A",
          "to": "null"
        }
      ],
      "sparkline": {
        "fillColor": "rgba(31, 118, 189, 0.18)",
        "full": false,
        "lineColor": "rgb(31, 120, 193)",
        "show": true
      },
      "tableColumn": "",
      "targets": [
        {
          "expr": "count(kube_pod_info_with_label{namespace=\"$namespace\",pod=~\"$pod-[a-z0-9]{7,10}-[a-z0-9]{5}\",phase!=\"Running\"}) or on() vector(0)",
          "format": "time_series",
          "intervalFactor": 2,
          "legendFormat": "",
          "refId": "A",
          "step": 40
        }
      ],
      "thresholds": "0.3,0.5",
      "title": "Pod Abnormal",
      "type": "singlestat",
      "valueFontSize": "80%",
      "valueMaps": [
        {
          "op": "=",
          "text": "N/A",
          "value": "null"
        }
      ],
      "valueName": "current"
    },
    {
      "columns": [],
      "datasource": "prometheus",
      "description": "组件中所有Pod的详细信息及状态",
      "fontSize": "100%",
      "gridPos": {
        "h": 5,
        "w": 12,
        "x": 12,
        "y": 4
      },
      "id": 12,
      "links": [],
      "pageSize": null,
      "scroll": true,
      "showHeader": true,
      "sort": {
        "col": 0,
        "desc": true
      },
      "styles": [
        {
          "alias": "Time",
          "dateFormat": "YYYY-MM-DD HH:mm:ss",
          "pattern": "Time",
          "type": "hidden"
        },
        {
          "alias": " Namespace",
          "colorMode": null,
          "colors": [
            "rgba(245, 54, 54, 0.9)",
            "rgba(237, 129, 40, 0.89)",
            "rgba(50, 172, 45, 0.97)"
          ],
          "dateFormat": "YYYY-MM-DD HH:mm:ss",
          "decimals": 2,
          "pattern": "namespace",
          "thresholds": [],
          "type": "number",
          "unit": "short"
        },
        {
          "alias": "Pod Name",
          "colorMode": null,
          "colors": [
            "rgba(245, 54, 54, 0.9)",
            "rgba(237, 129, 40, 0.89)",
            "rgba(50, 172, 45, 0.97)"
          ],
          "dateFormat": "YYYY-MM-DD HH:mm:ss",
          "decimals": 2,
          "pattern": "pod",
          "thresholds": [],
          "type": "number",
          "unit": "short"
        },
        {
          "alias": "Pod Status",
          "colorMode": null,
          "colors": [
            "rgba(245, 54, 54, 0.9)",
            "rgba(237, 129, 40, 0.89)",
            "rgba(50, 172, 45, 0.97)"
          ],
          "dateFormat": "YYYY-MM-DD HH:mm:ss",
          "decimals": 2,
          "pattern": "phase",
          "thresholds": [],
          "type": "number",
          "unit": "short"
        },
        {
          "alias": "Node",
          "colorMode": null,
          "colors": [
            "rgba(245, 54, 54, 0.9)",
            "rgba(237, 129, 40, 0.89)",
            "rgba(50, 172, 45, 0.97)"
          ],
          "dateFormat": "YYYY-MM-DD HH:mm:ss",
          "decimals": 2,
          "pattern": "node",
          "thresholds": [],
          "type": "number",
          "unit": "short"
        },
        {
          "alias": "Node IP",
          "colorMode": null,
          "colors": [
            "rgba(245, 54, 54, 0.9)",
            "rgba(237, 129, 40, 0.89)",
            "rgba(50, 172, 45, 0.97)"
          ],
          "dateFormat": "YYYY-MM-DD HH:mm:ss",
          "decimals": 2,
          "pattern": "host_ip",
          "thresholds": [],
          "type": "number",
          "unit": "short"
        },
        {
          "alias": "Pod IP",
          "colorMode": null,
          "colors": [
            "rgba(245, 54, 54, 0.9)",
            "rgba(237, 129, 40, 0.89)",
            "rgba(50, 172, 45, 0.97)"
          ],
          "dateFormat": "YYYY-MM-DD HH:mm:ss",
          "decimals": 2,
          "pattern": "pod_ip",
          "thresholds": [],
          "type": "number",
          "unit": "short"
        },
        {
          "alias": "",
          "colorMode": null,
          "colors": [
            "rgba(245, 54, 54, 0.9)",
            "rgba(237, 129, 40, 0.89)",
            "rgba(50, 172, 45, 0.97)"
          ],
          "dateFormat": "YYYY-MM-DD HH:mm:ss",
          "decimals": 2,
          "pattern": ".*",
          "thresholds": [],
          "type": "hidden",
          "unit": "short"
        }
      ],
      "targets": [
        {
          "expr": "kube_pod_info_with_label{namespace=\"$namespace\",pod=~\"$pod-[a-z0-9]{7,10}-[a-z0-9]{5}\"}",
          "format": "table",
          "instant": true,
          "intervalFactor": 1,
          "refId": "A"
        }
      ],
      "title": "Pod Info",
      "transform": "table",
      "type": "table"
    },
    {
      "aliasColors": {},
      "bars": false,
      "dashLength": 10,
      "dashes": false,
      "datasource": "prometheus",
      "decimals": 0,
      "description": "组件中所有Pod的状态",
      "fill": 0,
      "gridPos": {
        "h": 8,
        "w": 12,
        "x": 0,
        "y": 9
      },
      "id": 14,
      "legend": {
        "alignAsTable": false,
        "avg": false,
        "current": true,
        "max": false,
        "min": false,
        "rightSide": false,
        "show": false,
        "total": false,
        "values": true
      },
      "lines": true,
      "linewidth": 1,
      "links": [],
      "nullPointMode": "null",
      "percentage": false,
      "pointradius": 5,
      "points": false,
      "renderer": "flot",
      "seriesOverrides": [],
      "spaceLength": 10,
      "stack": false,
      "steppedLine": false,
      "targets": [
        {
          "expr": "sum (kube_deployment_spec_replicas{namespace=\"$namespace\",deployment=~\"$component\"})",
          "format": "time_series",
          "intervalFactor": 1,
          "legendFormat": "Replicas",
          "refId": "C"
        },
        {
          "expr": "sum (kube_pod_status_phase{namespace=\"$namespace\",pod=~\"$pod-[a-z0-9]{7,10}-[a-z0-9]{5}\",phase=\"Running\"})",
          "format": "time_series",
          "intervalFactor": 1,
          "legendFormat": "Running",
          "refId": "A"
        },
        {
          "expr": "sum (kube_pod_status_phase{namespace=\"$namespace\",pod=~\"$pod-[a-z0-9]{7,10}-[a-z0-9]{5}\",phase!=\"Running\"})",
          "format": "time_series",
          "intervalFactor": 1,
          "legendFormat": "Not Running",
          "refId": "B"
        }
      ],
      "thresholds": [],
      "timeFrom": null,
      "timeRegions": [],
      "timeShift": null,
      "title": "Pod Status",
      "tooltip": {
        "shared": true,
        "sort": 2,
        "value_type": "individual"
      },
      "type": "graph",
      "xaxis": {
        "buckets": null,
        "mode": "time",
        "name": null,
        "show": true,
        "values": []
      },
      "yaxes": [
        {
          "decimals": 0,
          "format": "short",
          "label": "",
          "logBase": 1,
          "max": null,
          "min": "0",
          "show": true
        },
        {
          "format": "short",
          "label": null,
          "logBase": 1,
          "max": null,
          "min": null,
          "show": false
        }
      ],
      "yaxis": {
        "align": false,
        "alignLevel": null
      }
    },
    {
      "aliasColors": {},
      "bars": false,
      "dashLength": 10,
      "dashes": false,
      "datasource": "prometheus",
      "decimals": 0,
      "description": "组件中Pod的重启情况",
      "fill": 0,
      "gridPos": {
        "h": 8,
        "w": 12,
        "x": 12,
        "y": 9
      },
      "id": 45,
      "legend": {
        "avg": false,
        "current": false,
        "max": false,
        "min": false,
        "show": false,
        "total": false,
        "values": false
      },
      "lines": true,
      "linewidth": 1,
      "links": [],
      "nullPointMode": "null",
      "percentage": false,
      "pointradius": 5,
      "points": false,
      "renderer": "flot",
      "seriesOverrides": [],
      "spaceLength": 10,
      "stack": false,
      "steppedLine": false,
      "targets": [
        {
          "expr": "sum by(pod) (kube_pod_container_status_restarts_total{namespace=\"$namespace\",pod=~\"$pod-[a-z0-9]{7,10}-[a-z0-9]{5}\"})",
          "format": "time_series",
          "intervalFactor": 1,
          "legendFormat": "{{pod}}",
          "refId": "A"
        }
      ],
      "thresholds": [],
      "timeFrom": null,
      "timeRegions": [],
      "timeShift": null,
      "title": "Pod Restarts",
      "tooltip": {
        "shared": true,
        "sort": 0,
        "value_type": "individual"
      },
      "type": "graph",
      "xaxis": {
        "buckets": null,
        "mode": "time",
        "name": null,
        "show": true,
        "values": []
      },
      "yaxes": [
        {
          "decimals": 0,
          "format": "short",
          "label": null,
          "logBase": 1,
          "max": null,
          "min": "0",
          "show": true
        },
        {
          "format": "short",
          "label": null,
          "logBase": 1,
          "max": null,
          "min": null,
          "show": false
        }
      ],
      "yaxis": {
        "align": false,
        "alignLevel": null
      }
    },
    {
      "gridPos": {
        "h": 1,
        "w": 24,
        "x": 0,
        "y": 17
      },
      "id": 41,
      "title": "Usage of $component",
      "type": "row"
    },
    {
      "cacheTimeout": null,
      "colorBackground": false,
      "colorValue": true,
      "colors": [
        "rgba(50, 172, 45, 0.97)",
        "rgba(248, 112, 0, 0.89)",
        "rgba(245, 54, 54, 0.9)"
      ],
      "datasource": "prometheus",
      "decimals": 3,
      "description": "组件CPU的真实使用率(实际使用量/Limit)",
      "format": "percentunit",
      "gauge": {
        "maxValue": 1,
        "minValue": 0,
        "show": true,
        "thresholdLabels": false,
        "thresholdMarkers": true
      },
      "gridPos": {
        "h": 4,
        "w": 4,
        "x": 0,
        "y": 18
      },
      "hideTimeOverride": true,
      "id": 61,
      "interval": null,
      "links": [],
      "mappingType": 1,
      "mappingTypes": [
        {
          "name": "value to text",
          "value": 1
        },
        {
          "name": "range to text",
          "value": 2
        }
      ],
      "maxDataPoints": 100,
      "nullPointMode": "connected",
      "nullText": null,
      "postfix": "",
      "postfixFontSize": "50%",
      "prefix": "",
      "prefixFontSize": "50%",
      "rangeMaps": [
        {
          "from": "null",
          "text": "N/A",
          "to": "null"
        }
      ],
      "sparkline": {
        "fillColor": "rgba(31, 118, 189, 0.18)",
        "full": false,
        "lineColor": "rgb(0, 192, 255)",
        "show": true
      },
      "tableColumn": "",
      "targets": [
        {
          "expr": "sum by (deployment_name) (container_cpu_usage_seconds_total_irate5m{namespace=\"$namespace\",pod_name=~\"$pod-[a-z0-9]{7,10}-[a-z0-9]{5}\",image!=\"\",container_name!=\"POD\"}) / sum by (deployment_name) (container_spec_cpu_quota{namespace=\"$namespace\",pod_name=~\"$pod-[a-z0-9]{7,10}-[a-z0-9]{5}\",image!=\"\",container_name!=\"POD\"}) * 100000",
          "format": "time_series",
          "intervalFactor": 2,
          "legendFormat": "",
          "metric": "node_memory_MemTotal_bytes",
          "refId": "A",
          "step": 40
        }
      ],
      "thresholds": "0.5,0.8",
      "timeFrom": "1s",
      "title": "CPU Utilization",
      "transparent": false,
      "type": "singlestat",
      "valueFontSize": "100%",
      "valueMaps": [
        {
          "op": "=",
          "text": "0",
          "value": "null"
        }
      ],
      "valueName": "current"
    },
    {
      "cacheTimeout": null,
      "colorBackground": false,
      "colorPostfix": true,
      "colorValue": true,
      "colors": [
        "rgba(50, 172, 45, 0.97)",
        "rgba(248, 112, 0, 0.89)",
        "rgba(245, 54, 54, 0.9)"
      ],
      "datasource": "prometheus",
      "decimals": 3,
      "description": "组件的CPU Limits",
      "format": "short",
      "gauge": {
        "maxValue": 10,
        "minValue": 0,
        "show": false,
        "thresholdLabels": false,
        "thresholdMarkers": true
      },
      "gridPos": {
        "h": 4,
        "w": 4,
        "x": 4,
        "y": 18
      },
      "hideTimeOverride": true,
      "id": 46,
      "interval": null,
      "links": [],
      "mappingType": 1,
      "mappingTypes": [
        {
          "name": "value to text",
          "value": 1
        },
        {
          "name": "range to text",
          "value": 2
        }
      ],
      "maxDataPoints": 100,
      "nullPointMode": "connected",
      "nullText": null,
      "postfix": "c",
      "postfixFontSize": "100%",
      "prefix": "",
      "prefixFontSize": "50%",
      "rangeMaps": [
        {
          "from": "null",
          "text": "N/A",
          "to": "null"
        }
      ],
      "sparkline": {
        "fillColor": "rgba(31, 118, 189, 0.18)",
        "full": false,
        "lineColor": "rgb(0, 192, 255)",
        "show": true
      },
      "tableColumn": "",
      "targets": [
        {
          "expr": "sum(kube_pod_container_resource_limits_cpu_cores{namespace=\"$namespace\",pod=~\"$pod-[a-z0-9]{7,10}-[a-z0-9]{5}\"})  / count(kube_pod_container_resource_limits_cpu_cores{namespace=\"$namespace\",pod=~\"$pod-[a-z0-9]{7,10}-[a-z0-9]{5}\"})",
          "format": "time_series",
          "intervalFactor": 2,
          "legendFormat": "",
          "metric": "node_memory_MemTotal_bytes",
          "refId": "A",
          "step": 40
        }
      ],
      "thresholds": "-1,0",
      "timeFrom": "1s",
      "title": "CPU Limits",
      "transparent": false,
      "type": "singlestat",
      "valueFontSize": "100%",
      "valueMaps": [
        {
          "op": "=",
          "text": "0",
          "value": "null"
        }
      ],
      "valueName": "current"
    },
    {
      "cacheTimeout": null,
      "colorBackground": false,
      "colorPostfix": true,
      "colorValue": true,
      "colors": [
        "rgba(245, 54, 54, 0.9)",
        "rgba(248, 112, 0, 0.89)",
        "rgba(50, 172, 45, 0.97)"
      ],
      "datasource": "prometheus",
      "decimals": 3,
      "description": "组件的CPU Requests",
      "format": "short",
      "gauge": {
        "maxValue": 10,
        "minValue": 0,
        "show": false,
        "thresholdLabels": false,
        "thresholdMarkers": true
      },
      "gridPos": {
        "h": 4,
        "w": 4,
        "x": 8,
        "y": 18
      },
      "hideTimeOverride": true,
      "id": 20,
      "interval": null,
      "links": [],
      "mappingType": 1,
      "mappingTypes": [
        {
          "name": "value to text",
          "value": 1
        },
        {
          "name": "range to text",
          "value": 2
        }
      ],
      "maxDataPoints": 100,
      "nullPointMode": "connected",
      "nullText": null,
      "postfix": "c",
      "postfixFontSize": "100%",
      "prefix": "",
      "prefixFontSize": "50%",
      "rangeMaps": [
        {
          "from": "null",
          "text": "N/A",
          "to": "null"
        }
      ],
      "sparkline": {
        "fillColor": "rgba(31, 118, 189, 0.18)",
        "full": false,
        "lineColor": "rgb(0, 192, 255)",
        "show": true
      },
      "tableColumn": "",
      "targets": [
        {
          "expr": "sum(kube_pod_container_resource_requests_cpu_cores{namespace=\"$namespace\",pod=~\"$pod-[a-z0-9]{7,10}-[a-z0-9]{5}\"}) / count(kube_pod_container_resource_requests_cpu_cores{namespace=\"$namespace\",pod=~\"$pod-[a-z0-9]{7,10}-[a-z0-9]{5}\"})",
          "format": "time_series",
          "intervalFactor": 2,
          "legendFormat": "",
          "metric": "node_memory_MemTotal_bytes",
          "refId": "A",
          "step": 40
        }
      ],
      "thresholds": "-1,0",
      "timeFrom": "1s",
      "title": "CPU Requests",
      "transparent": false,
      "type": "singlestat",
      "valueFontSize": "100%",
      "valueMaps": [
        {
          "op": "=",
          "text": "0",
          "value": "null"
        }
      ],
      "valueName": "current"
    },
    {
      "cacheTimeout": null,
      "colorBackground": false,
      "colorValue": true,
      "colors": [
        "rgba(50, 172, 45, 0.97)",
        "rgba(248, 112, 0, 0.89)",
        "rgba(245, 54, 54, 0.9)"
      ],
      "datasource": "prometheus",
      "decimals": 3,
      "description": "组件内存的真实使用率(实际使用量/Limit)",
      "format": "percentunit",
      "gauge": {
        "maxValue": 1,
        "minValue": 0,
        "show": true,
        "thresholdLabels": false,
        "thresholdMarkers": true
      },
      "gridPos": {
        "h": 4,
        "w": 4,
        "x": 12,
        "y": 18
      },
      "hideTimeOverride": true,
      "id": 62,
      "interval": null,
      "links": [],
      "mappingType": 1,
      "mappingTypes": [
        {
          "name": "value to text",
          "value": 1
        },
        {
          "name": "range to text",
          "value": 2
        }
      ],
      "maxDataPoints": 100,
      "nullPointMode": "connected",
      "nullText": null,
      "postfix": "",
      "postfixFontSize": "50%",
      "prefix": "",
      "prefixFontSize": "50%",
      "rangeMaps": [
        {
          "from": "null",
          "text": "N/A",
          "to": "null"
        }
      ],
      "sparkline": {
        "fillColor": "rgba(31, 118, 189, 0.18)",
        "full": false,
        "lineColor": "rgb(0, 192, 255)",
        "show": true
      },
      "tableColumn": "",
      "targets": [
        {
          "expr": "sum by (deployment_name) (container_memory_usage_bytes_without_cache{namespace=\"$namespace\",pod_name=~\"$pod-[a-z0-9]{7,10}-[a-z0-9]{5}\"}) / sum by (deployment_name) (container_spec_memory_limit_bytes{namespace=\"$namespace\",pod_name=~\"$pod-[a-z0-9]{7,10}-[a-z0-9]{5}\",image!=\"\",container_name!=\"POD\"})",
          "format": "time_series",
          "intervalFactor": 2,
          "legendFormat": "pod_restart_count",
          "metric": "node_memory_MemTotal_bytes",
          "refId": "A",
          "step": 40
        }
      ],
      "thresholds": "0.5,0.8",
      "timeFrom": "1s",
      "title": "Memory Utilization",
      "transparent": false,
      "type": "singlestat",
      "valueFontSize": "100%",
      "valueMaps": [
        {
          "op": "=",
          "text": "0",
          "value": "null"
        }
      ],
      "valueName": "current"
    },
    {
      "cacheTimeout": null,
      "colorBackground": false,
      "colorValue": true,
      "colors": [
        "rgba(50, 172, 45, 0.97)",
        "rgba(248, 112, 0, 0.89)",
        "rgba(245, 54, 54, 0.9)"
      ],
      "datasource": "prometheus",
      "decimals": null,
      "description": "组件的内存Limits",
      "format": "bytes",
      "gauge": {
        "maxValue": 10,
        "minValue": 0,
        "show": false,
        "thresholdLabels": false,
        "thresholdMarkers": true
      },
      "gridPos": {
        "h": 4,
        "w": 4,
        "x": 16,
        "y": 18
      },
      "hideTimeOverride": true,
      "id": 47,
      "interval": null,
      "links": [],
      "mappingType": 1,
      "mappingTypes": [
        {
          "name": "value to text",
          "value": 1
        },
        {
          "name": "range to text",
          "value": 2
        }
      ],
      "maxDataPoints": 100,
      "nullPointMode": "connected",
      "nullText": null,
      "postfix": "",
      "postfixFontSize": "50%",
      "prefix": "",
      "prefixFontSize": "50%",
      "rangeMaps": [
        {
          "from": "null",
          "text": "N/A",
          "to": "null"
        }
      ],
      "sparkline": {
        "fillColor": "rgba(31, 118, 189, 0.18)",
        "full": false,
        "lineColor": "rgb(0, 192, 255)",
        "show": true
      },
      "tableColumn": "",
      "targets": [
        {
          "expr": "sum(kube_pod_container_resource_limits_memory_bytes{namespace=\"$namespace\",pod=~\"$pod-[a-z0-9]{7,10}-[a-z0-9]{5}\"}) / count(kube_pod_container_resource_limits_memory_bytes{namespace=\"$namespace\",pod=~\"$pod-[a-z0-9]{7,10}-[a-z0-9]{5}\"})",
          "format": "time_series",
          "intervalFactor": 2,
          "legendFormat": "",
          "metric": "node_memory_MemTotal_bytes",
          "refId": "A",
          "step": 40
        }
      ],
      "thresholds": "-1,0",
      "timeFrom": "1s",
      "title": "Memory Limits",
      "transparent": false,
      "type": "singlestat",
      "valueFontSize": "120%",
      "valueMaps": [
        {
          "op": "=",
          "text": "0",
          "value": "null"
        }
      ],
      "valueName": "current"
    },
    {
      "cacheTimeout": null,
      "colorBackground": false,
      "colorValue": true,
      "colors": [
        "rgba(245, 54, 54, 0.9)",
        "rgba(248, 112, 0, 0.89)",
        "rgba(50, 172, 45, 0.97)"
      ],
      "datasource": "prometheus",
      "decimals": null,
      "description": "组件的内存Requests",
      "format": "bytes",
      "gauge": {
        "maxValue": 10,
        "minValue": 0,
        "show": false,
        "thresholdLabels": false,
        "thresholdMarkers": true
      },
      "gridPos": {
        "h": 4,
        "w": 4,
        "x": 20,
        "y": 18
      },
      "hideTimeOverride": true,
      "id": 48,
      "interval": null,
      "links": [],
      "mappingType": 1,
      "mappingTypes": [
        {
          "name": "value to text",
          "value": 1
        },
        {
          "name": "range to text",
          "value": 2
        }
      ],
      "maxDataPoints": 100,
      "nullPointMode": "connected",
      "nullText": null,
      "postfix": "",
      "postfixFontSize": "50%",
      "prefix": "",
      "prefixFontSize": "50%",
      "rangeMaps": [
        {
          "from": "null",
          "text": "N/A",
          "to": "null"
        }
      ],
      "sparkline": {
        "fillColor": "rgba(31, 118, 189, 0.18)",
        "full": false,
        "lineColor": "rgb(0, 192, 255)",
        "show": true
      },
      "tableColumn": "",
      "targets": [
        {
          "expr": "sum(kube_pod_container_resource_requests_memory_bytes{namespace=\"$namespace\",pod=~\"$pod-[a-z0-9]{7,10}-[a-z0-9]{5}\"}) / count(kube_pod_container_resource_requests_memory_bytes{namespace=\"$namespace\",pod=~\"$pod-[a-z0-9]{7,10}-[a-z0-9]{5}\"})",
          "format": "time_series",
          "intervalFactor": 2,
          "legendFormat": "",
          "metric": "node_memory_MemTotal_bytes",
          "refId": "A",
          "step": 40
        }
      ],
      "thresholds": "-1,0",
      "timeFrom": "1s",
      "title": "Memory Requests",
      "transparent": false,
      "type": "singlestat",
      "valueFontSize": "120%",
      "valueMaps": [
        {
          "op": "=",
          "text": "0",
          "value": "null"
        }
      ],
      "valueName": "current"
    },
    {
      "aliasColors": {},
      "bars": false,
      "dashLength": 10,
      "dashes": false,
      "datasource": "prometheus",
      "decimals": 2,
      "description": "组件中各Pod的CPU利用率",
      "fill": 1,
      "gridPos": {
        "h": 9,
        "w": 12,
        "x": 0,
        "y": 22
      },
      "id": 2,
      "legend": {
        "avg": false,
        "current": false,
        "max": false,
        "min": false,
        "rightSide": false,
        "show": false,
        "total": false,
        "values": false
      },
      "lines": true,
      "linewidth": 1,
      "links": [],
      "nullPointMode": "null",
      "percentage": false,
      "pointradius": 5,
      "points": false,
      "renderer": "flot",
      "seriesOverrides": [],
      "spaceLength": 10,
      "stack": false,
      "steppedLine": false,
      "targets": [
        {
          "expr": "sum by (pod_name) (container_cpu_usage_seconds_total_irate5m{namespace=\"$namespace\",pod_name=~\"$pod-[a-z0-9]{7,10}-[a-z0-9]{5}\",image!=\"\",container_name!=\"POD\"}) / sum by (pod_name) (container_spec_cpu_quota{namespace=\"$namespace\",pod_name=~\"$pod-[a-z0-9]{7,10}-[a-z0-9]{5}\",image!=\"\",container_name!=\"POD\"}) * 100000",
          "format": "time_series",
          "intervalFactor": 1,
          "legendFormat": "{{pod_name}}",
          "refId": "A"
        }
      ],
      "thresholds": [],
      "timeFrom": null,
      "timeRegions": [],
      "timeShift": null,
      "title": "CPU Utilization of Pod",
      "tooltip": {
        "shared": true,
        "sort": 0,
        "value_type": "individual"
      },
      "type": "graph",
      "xaxis": {
        "buckets": null,
        "mode": "time",
        "name": null,
        "show": true,
        "values": []
      },
      "yaxes": [
        {
          "decimals": 2,
          "format": "percentunit",
          "label": null,
          "logBase": 1,
          "max": null,
          "min": null,
          "show": true
        },
        {
          "decimals": 2,
          "format": "short",
          "label": null,
          "logBase": 1,
          "max": null,
          "min": "0",
          "show": false
        }
      ],
      "yaxis": {
        "align": false,
        "alignLevel": null
      }
    },
    {
      "aliasColors": {},
      "bars": false,
      "dashLength": 10,
      "dashes": false,
      "datasource": "prometheus",
      "decimals": 2,
      "description": "组件中各Pod的内存利用率",
      "fill": 1,
      "gridPos": {
        "h": 9,
        "w": 12,
        "x": 12,
        "y": 22
      },
      "id": 29,
      "legend": {
        "avg": false,
        "current": false,
        "max": false,
        "min": false,
        "show": false,
        "total": false,
        "values": false
      },
      "lines": true,
      "linewidth": 1,
      "links": [],
      "nullPointMode": "null",
      "percentage": false,
      "pointradius": 5,
      "points": false,
      "renderer": "flot",
      "seriesOverrides": [],
      "spaceLength": 10,
      "stack": false,
      "steppedLine": false,
      "targets": [
        {
          "expr": "sum by (pod_name) (container_memory_usage_bytes_without_cache{namespace=\"$namespace\",pod_name=~\"$pod-[a-z0-9]{7,10}-[a-z0-9]{5}\"}) / sum by (pod_name) (container_spec_memory_limit_bytes{namespace=\"$namespace\",pod_name=~\"$pod-[a-z0-9]{7,10}-[a-z0-9]{5}\",image!=\"\",container_name!=\"POD\"})",
          "format": "time_series",
          "intervalFactor": 1,
          "legendFormat": "{{pod_name}}",
          "refId": "A"
        }
      ],
      "thresholds": [],
      "timeFrom": null,
      "timeRegions": [],
      "timeShift": null,
      "title": "Memory Utilization of Pod",
      "tooltip": {
        "shared": true,
        "sort": 0,
        "value_type": "individual"
      },
      "type": "graph",
      "xaxis": {
        "buckets": null,
        "mode": "time",
        "name": null,
        "show": true,
        "values": []
      },
      "yaxes": [
        {
          "decimals": 2,
          "format": "percentunit",
          "label": null,
          "logBase": 1,
          "max": null,
          "min": null,
          "show": true
        },
        {
          "format": "short",
          "label": null,
          "logBase": 1,
          "max": null,
          "min": null,
          "show": false
        }
      ],
      "yaxis": {
        "align": false,
        "alignLevel": null
      }
    },
    {
      "aliasColors": {},
      "bars": false,
      "dashLength": 10,
      "dashes": false,
      "datasource": "prometheus",
      "description": "组件中各Pod的网络发送速率",
      "fill": 1,
      "gridPos": {
        "h": 9,
        "w": 12,
        "x": 0,
        "y": 31
      },
      "id": 4,
      "legend": {
        "avg": false,
        "current": false,
        "max": false,
        "min": false,
        "show": false,
        "total": false,
        "values": false
      },
      "lines": true,
      "linewidth": 1,
      "links": [],
      "nullPointMode": "null",
      "percentage": false,
      "pointradius": 5,
      "points": false,
      "renderer": "flot",
      "seriesOverrides": [],
      "spaceLength": 10,
      "stack": false,
      "steppedLine": false,
      "targets": [
        {
          "expr": "sum by (pod_name) (container_network_transmit_bytes_total_irate5m{namespace=\"$namespace\", pod_name=~\"$pod-[a-z0-9]{7,10}-[a-z0-9]{5}\"})",
          "format": "time_series",
          "intervalFactor": 1,
          "legendFormat": "{{pod_name}}",
          "refId": "B"
        }
      ],
      "thresholds": [],
      "timeFrom": null,
      "timeRegions": [],
      "timeShift": null,
      "title": "Network Transmit Rate of Pod",
      "tooltip": {
        "shared": true,
        "sort": 0,
        "value_type": "individual"
      },
      "type": "graph",
      "xaxis": {
        "buckets": null,
        "mode": "time",
        "name": null,
        "show": true,
        "values": []
      },
      "yaxes": [
        {
          "format": "Bps",
          "label": null,
          "logBase": 1,
          "max": null,
          "min": null,
          "show": true
        },
        {
          "format": "short",
          "label": null,
          "logBase": 1,
          "max": null,
          "min": null,
          "show": false
        }
      ],
      "yaxis": {
        "align": false,
        "alignLevel": null
      }
    },
    {
      "aliasColors": {},
      "bars": false,
      "dashLength": 10,
      "dashes": false,
      "datasource": "prometheus",
      "description": "组件中各Pod的网络接收速率",
      "fill": 1,
      "gridPos": {
        "h": 9,
        "w": 12,
        "x": 12,
        "y": 31
      },
      "id": 53,
      "legend": {
        "avg": false,
        "current": false,
        "max": false,
        "min": false,
        "show": false,
        "total": false,
        "values": false
      },
      "lines": true,
      "linewidth": 1,
      "links": [],
      "nullPointMode": "null",
      "percentage": false,
      "pointradius": 5,
      "points": false,
      "renderer": "flot",
      "seriesOverrides": [],
      "spaceLength": 10,
      "stack": false,
      "steppedLine": false,
      "targets": [
        {
          "expr": "sum by (pod_name) (container_network_receive_bytes_total_irate5m{namespace=\"$namespace\",pod_name=~\"$pod-[a-z0-9]{7,10}-[a-z0-9]{5}\"})",
          "format": "time_series",
          "intervalFactor": 1,
          "legendFormat": "{{pod_name}}",
          "refId": "A"
        }
      ],
      "thresholds": [],
      "timeFrom": null,
      "timeRegions": [],
      "timeShift": null,
      "title": "Network Receive Rate of Pod",
      "tooltip": {
        "shared": true,
        "sort": 0,
        "value_type": "individual"
      },
      "type": "graph",
      "xaxis": {
        "buckets": null,
        "mode": "time",
        "name": null,
        "show": true,
        "values": []
      },
      "yaxes": [
        {
          "format": "Bps",
          "label": null,
          "logBase": 1,
          "max": null,
          "min": null,
          "show": true
        },
        {
          "format": "short",
          "label": null,
          "logBase": 1,
          "max": null,
          "min": null,
          "show": false
        }
      ],
      "yaxis": {
        "align": false,
        "alignLevel": null
      }
    },
    {
      "collapsed": false,
      "gridPos": {
        "h": 1,
        "w": 24,
        "x": 0,
        "y": 40
      },
      "id": 8,
      "panels": [],
      "title": "API Status of $component",
      "type": "row"
    },
    {
      "aliasColors": {},
      "bars": false,
      "dashLength": 10,
      "dashes": false,
      "datasource": "prometheus",
      "description": "过去5分钟内，组件所有API请求的返回结果，按照 2xx、4xx、5xx状态分类",
      "fill": 1,
      "gridPos": {
        "h": 9,
        "w": 24,
        "x": 0,
        "y": 41
      },
      "id": 49,
      "legend": {
        "alignAsTable": true,
        "avg": false,
        "current": true,
        "hideEmpty": false,
        "hideZero": false,
        "max": false,
        "min": false,
        "show": false,
        "total": false,
        "values": true
      },
      "lines": true,
      "linewidth": 1,
      "links": [],
      "nullPointMode": "null",
      "percentage": false,
      "pointradius": 5,
      "points": false,
      "renderer": "flot",
      "seriesOverrides": [],
      "spaceLength": 10,
      "stack": false,
      "steppedLine": false,
      "targets": [
        {
          "expr": "sum (delta(requests_total_by_pod_method_code_handler_endpoint{code=~\"2.*\",pod=~\"$pod-[a-z0-9]{7,10}-[a-z0-9]{5}\"}[5m]))",
          "format": "time_series",
          "intervalFactor": 1,
          "legendFormat": "Success",
          "refId": "A"
        },
        {
          "expr": "sum (delta(requests_total_by_pod_method_code_handler_endpoint{code=~\"4.*\",pod=~\"$pod-[a-z0-9]{7,10}-[a-z0-9]{5}\"}[5m]))",
          "format": "time_series",
          "intervalFactor": 1,
          "legendFormat": "Client Error",
          "refId": "B"
        },
        {
          "expr": "sum (delta(requests_total_by_pod_method_code_handler_endpoint{code=~\"5.*\",pod=~\"$pod-[a-z0-9]{7,10}-[a-z0-9]{5}\"}[5m]))",
          "format": "time_series",
          "intervalFactor": 1,
          "legendFormat": "Server Error",
          "refId": "C"
        }
      ],
      "thresholds": [],
      "timeFrom": null,
      "timeRegions": [],
      "timeShift": null,
      "title": "API Requests Count Group by Code",
      "tooltip": {
        "shared": true,
        "sort": 2,
        "value_type": "individual"
      },
      "type": "graph",
      "xaxis": {
        "buckets": null,
        "mode": "time",
        "name": null,
        "show": true,
        "values": []
      },
      "yaxes": [
        {
          "decimals": 0,
          "format": "short",
          "label": null,
          "logBase": 1,
          "max": null,
          "min": "0",
          "show": true
        },
        {
          "format": "short",
          "label": null,
          "logBase": 1,
          "max": null,
          "min": null,
          "show": false
        }
      ],
      "yaxis": {
        "align": false,
        "alignLevel": null
      }
    },
    {
      "aliasColors": {},
      "bars": false,
      "dashLength": 10,
      "dashes": false,
      "datasource": "prometheus",
      "decimals": null,
      "description": "过去5分钟内，组件所有API返回状态码是 4xx的统计，按照请求方法和接口分类",
      "fill": 1,
      "gridPos": {
        "h": 9,
        "w": 12,
        "x": 0,
        "y": 50
      },
      "id": 50,
      "legend": {
        "alignAsTable": true,
        "avg": false,
        "current": true,
        "hideEmpty": false,
        "hideZero": false,
        "max": false,
        "min": false,
        "show": false,
        "total": false,
        "values": true
      },
      "lines": true,
      "linewidth": 1,
      "links": [],
      "nullPointMode": "null",
      "percentage": false,
      "pointradius": 5,
      "points": false,
      "renderer": "flot",
      "seriesOverrides": [],
      "spaceLength": 10,
      "stack": false,
      "steppedLine": false,
      "targets": [
        {
          "expr": "sum by(method,handler,code) (delta(requests_total_by_pod_method_code_handler_endpoint{code=~\"4..\",pod=~\"$pod-[a-z0-9]{7,10}-[a-z0-9]{5}\"}[5m]))",
          "format": "time_series",
          "intervalFactor": 1,
          "legendFormat": "{{method}} {{handler}} {{code}}",
          "refId": "B"
        }
      ],
      "thresholds": [],
      "timeFrom": null,
      "timeRegions": [],
      "timeShift": null,
      "title": "Client Error Count Group by Method and  Handler",
      "tooltip": {
        "shared": true,
        "sort": 2,
        "value_type": "individual"
      },
      "type": "graph",
      "xaxis": {
        "buckets": null,
        "mode": "time",
        "name": null,
        "show": true,
        "values": []
      },
      "yaxes": [
        {
          "decimals": 0,
          "format": "short",
          "label": null,
          "logBase": 1,
          "max": null,
          "min": "0",
          "show": true
        },
        {
          "format": "short",
          "label": null,
          "logBase": 1,
          "max": null,
          "min": null,
          "show": false
        }
      ],
      "yaxis": {
        "align": false,
        "alignLevel": null
      }
    },
    {
      "aliasColors": {},
      "bars": false,
      "dashLength": 10,
      "dashes": false,
      "datasource": "prometheus",
      "description": "过去5分钟内，组件所有API返回状态码是5xx的统计，按照请求方法和接口分类",
      "fill": 1,
      "gridPos": {
        "h": 9,
        "w": 12,
        "x": 12,
        "y": 50
      },
      "id": 52,
      "legend": {
        "alignAsTable": true,
        "avg": false,
        "current": true,
        "hideEmpty": false,
        "hideZero": false,
        "max": false,
        "min": false,
        "show": false,
        "total": false,
        "values": true
      },
      "lines": true,
      "linewidth": 1,
      "links": [],
      "nullPointMode": "null",
      "percentage": false,
      "pointradius": 5,
      "points": false,
      "renderer": "flot",
      "seriesOverrides": [],
      "spaceLength": 10,
      "stack": false,
      "steppedLine": false,
      "targets": [
        {
          "expr": " sum by(method,handler,code) (delta(requests_total_by_pod_method_code_handler_endpoint{code=~\"5..\",pod=~\"$pod-[a-z0-9]{7,10}-[a-z0-9]{5}\"}[5m]))",
          "format": "time_series",
          "intervalFactor": 1,
          "legendFormat": "{{method}} {{handler}} {{code}}",
          "refId": "A"
        }
      ],
      "thresholds": [],
      "timeFrom": null,
      "timeRegions": [],
      "timeShift": null,
      "title": "Server Error Count Group by Method and Handler",
      "tooltip": {
        "shared": true,
        "sort": 2,
        "value_type": "individual"
      },
      "type": "graph",
      "xaxis": {
        "buckets": null,
        "mode": "time",
        "name": null,
        "show": true,
        "values": []
      },
      "yaxes": [
        {
          "decimals": 0,
          "format": "short",
          "label": null,
          "logBase": 1,
          "max": null,
          "min": "0",
          "show": true
        },
        {
          "format": "short",
          "label": null,
          "logBase": 1,
          "max": null,
          "min": null,
          "show": false
        }
      ],
      "yaxis": {
        "align": false,
        "alignLevel": null
      }
    },
    {
      "aliasColors": {},
      "bars": false,
      "dashLength": 10,
      "dashes": false,
      "datasource": "prometheus",
      "description": "组件中每个Pod的请求延迟统计，分别展示分位数0.5、0.9、0.99的数据",
      "fill": 1,
      "gridPos": {
        "h": 9,
        "w": 12,
        "x": 0,
        "y": 59
      },
      "id": 37,
      "legend": {
        "alignAsTable": true,
        "avg": false,
        "current": true,
        "hideEmpty": false,
        "hideZero": false,
        "max": false,
        "min": false,
        "show": false,
        "total": false,
        "values": true
      },
      "lines": true,
      "linewidth": 1,
      "links": [],
      "nullPointMode": "null",
      "percentage": false,
      "pointradius": 5,
      "points": false,
      "renderer": "flot",
      "seriesOverrides": [],
      "spaceLength": 10,
      "stack": false,
      "steppedLine": false,
      "targets": [
        {
          "expr": "{job=\"$component\",__name__=~\".*request_duration_seconds\"}",
          "format": "time_series",
          "intervalFactor": 1,
          "legendFormat": "{{pod}}/{{quantile}}",
          "refId": "A"
        }
      ],
      "thresholds": [],
      "timeFrom": null,
      "timeRegions": [],
      "timeShift": null,
      "title": "API Requests Latency Group by Pod and Quantile",
      "tooltip": {
        "shared": true,
        "sort": 0,
        "value_type": "individual"
      },
      "type": "graph",
      "xaxis": {
        "buckets": null,
        "mode": "time",
        "name": null,
        "show": true,
        "values": []
      },
      "yaxes": [
        {
          "decimals": null,
          "format": "s",
          "label": null,
          "logBase": 1,
          "max": null,
          "min": null,
          "show": true
        },
        {
          "format": "short",
          "label": null,
          "logBase": 1,
          "max": null,
          "min": null,
          "show": false
        }
      ],
      "yaxis": {
        "align": false,
        "alignLevel": null
      }
    },
    {
      "aliasColors": {},
      "bars": false,
      "dashLength": 10,
      "dashes": false,
      "datasource": "prometheus",
      "description": "过去5分钟内，组件中每个Pod的平均延迟",
      "fill": 1,
      "gridPos": {
        "h": 9,
        "w": 12,
        "x": 12,
        "y": 59
      },
      "id": 63,
      "legend": {
        "alignAsTable": true,
        "avg": false,
        "current": true,
        "hideEmpty": false,
        "hideZero": false,
        "max": false,
        "min": false,
        "show": false,
        "sortDesc": true,
        "total": false,
        "values": true
      },
      "lines": true,
      "linewidth": 1,
      "links": [],
      "nullPointMode": "null",
      "percentage": false,
      "pointradius": 5,
      "points": false,
      "renderer": "flot",
      "seriesOverrides": [],
      "spaceLength": 10,
      "stack": false,
      "steppedLine": false,
      "targets": [
        {
          "expr": "delta({job=\"$component\",__name__=~\".*request_duration_seconds_sum\"}[5m]) / delta({job=\"$component\",__name__=~\".*request_duration_seconds_count\"}[5m])",
          "format": "time_series",
          "intervalFactor": 1,
          "legendFormat": "{{pod}}",
          "refId": "A"
        }
      ],
      "thresholds": [],
      "timeFrom": null,
      "timeRegions": [],
      "timeShift": null,
      "title": "API Requests Average Latency Group by Pod",
      "tooltip": {
        "shared": true,
        "sort": 0,
        "value_type": "individual"
      },
      "type": "graph",
      "xaxis": {
        "buckets": null,
        "mode": "time",
        "name": null,
        "show": true,
        "values": []
      },
      "yaxes": [
        {
          "decimals": null,
          "format": "s",
          "label": null,
          "logBase": 1,
          "max": null,
          "min": null,
          "show": true
        },
        {
          "format": "short",
          "label": null,
          "logBase": 1,
          "max": null,
          "min": null,
          "show": false
        }
      ],
      "yaxis": {
        "align": false,
        "alignLevel": null
      }
    },
    {
      "aliasColors": {},
      "bars": true,
      "dashLength": 10,
      "dashes": false,
      "datasource": "prometheus",
      "description": "过去5分钟内，组件请求数量最多的5个API，按照请求方法和接口分类",
      "fill": 1,
      "gridPos": {
        "h": 8,
        "w": 12,
        "x": 0,
        "y": 68
      },
      "hideTimeOverride": true,
      "id": 39,
      "legend": {
        "alignAsTable": true,
        "avg": false,
        "current": true,
        "hideEmpty": false,
        "hideZero": false,
        "max": false,
        "min": false,
        "rightSide": false,
        "show": true,
        "total": false,
        "values": true
      },
      "lines": false,
      "linewidth": 1,
      "links": [],
      "nullPointMode": "null",
      "percentage": false,
      "pointradius": 5,
      "points": false,
      "renderer": "flot",
      "seriesOverrides": [],
      "spaceLength": 10,
      "stack": false,
      "steppedLine": false,
      "targets": [
        {
          "expr": "topk(5, sum by(method,handler) (increase(requests_total_by_pod_method_code_handler_endpoint{pod=~\"$pod-[a-z0-9]{7,10}-[a-z0-9]{5}\"}[5m])))",
          "format": "time_series",
          "intervalFactor": 1,
          "legendFormat": "{{method}} {{handler}}",
          "refId": "A"
        }
      ],
      "thresholds": [],
      "timeFrom": "1s",
      "timeRegions": [],
      "timeShift": null,
      "title": "API Requests Count Top5 Group by Method and Handler",
      "tooltip": {
        "shared": false,
        "sort": 2,
        "value_type": "individual"
      },
      "type": "graph",
      "xaxis": {
        "buckets": null,
        "mode": "series",
        "name": null,
        "show": false,
        "values": [
          "current"
        ]
      },
      "yaxes": [
        {
          "decimals": null,
          "format": "short",
          "label": null,
          "logBase": 1,
          "max": null,
          "min": null,
          "show": true
        },
        {
          "format": "short",
          "label": null,
          "logBase": 1,
          "max": null,
          "min": null,
          "show": false
        }
      ],
      "yaxis": {
        "align": false,
        "alignLevel": null
      }
    },
    {
      "aliasColors": {},
      "bars": false,
      "dashLength": 10,
      "dashes": false,
      "datasource": "prometheus",
      "description": "过去5分钟内，组件的API请求速率(次/分钟)，按照请求方法和接口分类",
      "fill": 1,
      "gridPos": {
        "h": 8,
        "w": 12,
        "x": 12,
        "y": 68
      },
      "id": 38,
      "legend": {
        "alignAsTable": true,
        "avg": false,
        "current": true,
        "max": false,
        "min": false,
        "show": false,
        "total": false,
        "values": true
      },
      "lines": true,
      "linewidth": 1,
      "links": [],
      "nullPointMode": "null",
      "percentage": false,
      "pointradius": 5,
      "points": false,
      "renderer": "flot",
      "seriesOverrides": [],
      "spaceLength": 10,
      "stack": false,
      "steppedLine": false,
      "targets": [
        {
          "expr": "sum by(handler,method) (rate(requests_total_by_pod_method_code_handler_endpoint{pod=~\"$pod-[a-z0-9]{7,10}-[a-z0-9]{5}\"}[5m])) * 60",
          "format": "time_series",
          "intervalFactor": 1,
          "legendFormat": "{{method}} {{handler}}",
          "refId": "A"
        }
      ],
      "thresholds": [],
      "timeFrom": null,
      "timeRegions": [],
      "timeShift": null,
      "title": "API Requests Rate Group by Method and Handler",
      "tooltip": {
        "shared": true,
        "sort": 2,
        "value_type": "individual"
      },
      "type": "graph",
      "xaxis": {
        "buckets": null,
        "mode": "time",
        "name": null,
        "show": true,
        "values": []
      },
      "yaxes": [
        {
          "decimals": null,
          "format": "short",
          "label": null,
          "logBase": 1,
          "max": null,
          "min": null,
          "show": true
        },
        {
          "format": "short",
          "label": null,
          "logBase": 1,
          "max": null,
          "min": null,
          "show": false
        }
      ],
      "yaxis": {
        "align": false,
        "alignLevel": null
      }
    }
  ],
  "refresh": "1m",
  "schemaVersion": 16,
  "style": "dark",
  "tags": [],
  "templating": {
    "list": [
      {
        "allValue": ".*",
        "current": {
          "text": "cert-manager",
          "value": "cert-manager"
        },
        "datasource": "prometheus",
        "definition": "label_values(kube_pod_labels{label_service_name=\"$component\"},namespace)",
        "hide": 2,
        "includeAll": false,
        "label": "Namespace",
        "multi": false,
        "name": "namespace",
        "options": [],
        "query": "label_values(kube_pod_labels{label_service_name=\"$component\"},namespace)",
        "refresh": 2,
        "regex": "",
        "skipUrlSync": false,
        "sort": 0,
        "tagValuesQuery": "",
        "tags": [],
        "tagsQuery": "",
        "type": "query",
        "useTags": false
      },
      {
        "current": {
          "text": "cert-manager",
          "value": "cert-manager"
        },
        "hide": 2,
        "label": "Component",
        "name": "component",
        "options": [
          {
            "selected": true,
            "text": "cert-manager",
            "value": "cert-manager"
          }
        ],
        "query": "cert-manager",
        "skipUrlSync": false,
        "type": "constant"
      },
      {
        "allValue": ".*",
        "current": {
          "text": "cert-manager",
          "value": "cert-manager"
        },
        "datasource": "prometheus",
        "definition": "",
        "hide": 2,
        "includeAll": false,
        "label": "Pod",
        "multi": false,
        "name": "pod",
        "options": [],
        "query": "label_values(kube_pod_labels{namespace=\"$namespace\",label_service_name=\"$component\"},pod)",
        "refresh": 2,
        "regex": "/(.*)-[a-z0-9]{7,10}-[a-z0-9]{5}/",
        "skipUrlSync": false,
        "sort": 0,
        "tagValuesQuery": "",
        "tags": [],
        "tagsQuery": "",
        "type": "query",
        "useTags": false
      }
    ]
  },
  "time": {
    "from": "now-24h",
    "to": "now"
  },
  "timepicker": {
    "refresh_intervals": [
      "5s",
      "10s",
      "30s",
      "1m",
      "5m",
      "15m",
      "30m",
      "1h",
      "2h",
      "1d"
    ],
    "time_options": [
      "5m",
      "15m",
      "1h",
      "6h",
      "12h",
      "24h",
      "2d",
      "7d",
      "30d"
    ]
  },
  "timezone": "",
  "title": "Cert-manager",
  "uid": "ACMGXKoEk",
  "version": 5
}